[
  [
    "Firstname",
    "Lastname",
    "Age",
    "Gender",
    "Schoolname",
    "Collegename",
    "DOB"
  ],
  [
    {
      "Firstname": "John",
      "Lastname": "Stevens",
      "Age": "27",
      "Gender": "Male",
      "Schoolname": "Symbiosis International School",
      "Collegename": "MITCOM",
      "DOB": "12/12/1990"
    },
    {
      "Firstname": "Les",
      "Lastname": "Thomas",
      "Age": "26",
      "Gender": "Male",
      "Schoolname": "City International School",
      "Collegename": "Sinhgad Institute",
      "DOB": "02/09/1991"
    },
    {
      "Firstname": "Eric",
      "Lastname": "Stevens",
      "Age": "22",
      "Gender": "Male",
      "Schoolname": "KHS",
      "Collegename": "VIT",
      "DOB": "02/09/1992"
    },
    {
      "Firstname": "Weslie",
      "Lastname": "Brown",
      "Age": "23",
      "Gender": "Male",
      "Schoolname": "DPS School",
      "Collegename": "MITSOM",
      "DOB": "13/12/1994"
    },
    {
      "Firstname": "Catlyn",
      "Lastname": "Booster",
      "Age": "20",
      "Gender": "Female",
      "Schoolname": "St. Miras",
      "Collegename": "SKN",
      "DOB": "02/09/2000"
    },
    {
      "Firstname": "Les",
      "Lastname": "Thomas",
      "Age": "26",
      "Gender": "Male",
      "Schoolname": "New English School",
      "Collegename": "Sinhgad Institute",
      "DOB": "02/09/1991"
    },
    {
      "Firstname": "Rey",
      "Lastname": "Hogan",
      "Age": "25",
      "Gender": "Male",
      "Schoolname": "St Vincent",
      "Collegename": "Law COllege",
      "DOB": "26/06/1990"
    },
    {
      "Firstname": "Peter",
      "Lastname": "Parker",
      "Age": "26",
      "Gender": "Male",
      "Schoolname": "City International School",
      "Collegename": "Sinhgad Institute",
      "DOB": "02/09/1991"
    },
    {
      "Firstname": "Donald",
      "Lastname": "Thomas",
      "Age": "26",
      "Gender": "Male",
      "Schoolname": "New English School",
      "Collegename": "VIT",
      "DOB": "02/09/1991"
    }
  ]
]
